<?xml version="1.0" standalone="no"?>
<!DOCTYPE svg PUBLIC "-//W3C//DTD SVG 1.1//EN" "http://www.w3.org/Graphics/SVG/1.1/DTD/svg11.dtd">
<svg xmlns="http://www.w3.org/2000/svg">
<metadata>Copyright (C) 2019 by original authors @ fontello.com</metadata>
<defs>
<font id="fontello" horiz-adv-x="1000" >
<font-face font-family="fontello" font-weight="400" font-stretch="normal" units-per-em="1000" ascent="850" descent="-150" />
<missing-glyph horiz-adv-x="1000" />
<glyph glyph-name="birth-control-pills" unicode="&#xe800;" d="M327 682l-176-175c-16-16-16-41 0-57l414-414c16-16 41-16 57 0l175 175c16 16 16 41 0 57l-414 414c-15 16-41 16-56 0z m-15-169c-4 4-4 11 0 15 4 4 11 4 15 0l300-300c4-4 4-11 0-15-4-4-11-4-15 0l-300 300z m305-422c-13-13-31-17-41-7-9 9-6 27 7 41 13 13 31 17 41 7 10-9 6-28-7-41z m-45 33l-2 15 15-2-8-4-5-9z m-9 21c-13-13-31-17-41-7-9 9-6 27 7 41 13 13 31 17 41 7 10-10 6-28-7-41z m-45 33l-2 15 15-2-8-4-5-9z m-9 21c-13-13-31-16-41-7-9 9-6 27 7 41 13 13 31 17 41 7 10-10 6-28-7-41z m-45 33l-2 15 15-2-8-4-5-9z m-9 21c-13-13-31-16-41-7-9 9-6 27 7 41 13 13 31 17 41 7 10-10 7-28-7-41z m-45 33l-2 15 15-2-8-4-5-9z m-10 22c-13-13-31-17-41-7-9 9-6 27 7 41 13 13 31 17 41 7 10-10 7-28-7-41z m-44 32l-2 15 15-2-8-4-5-9z m-8 20c-13-13-31-16-41-7-9 9-6 27 7 41 13 13 31 17 41 7 9-9 6-27-7-41z m-46 34l-2 15 15-2-8-4-5-9z m-9 21c-13-13-31-17-41-7-9 9-6 27 7 41 13 13 31 17 41 7 9-9 6-27-7-41z m-45 33l-2 15 15-2-9-5-4-8z m-8 20c-13-13-31-17-41-7-9 9-6 27 7 41 13 13 31 17 41 7 9-9 6-27-7-41z m404-330l-15-2 2 15 4-8 9-5z m41 21c-13-13-31-16-41-7-9 9-6 27 7 41 13 13 31 17 41 7 9-10 6-28-7-41z m26 46l-15-2 2 15 4-8 9-5z m37 18c-13-13-31-16-41-7-9 9-6 27 7 41 13 13 31 17 41 7 10-10 7-28-7-41z m-53 42l8 4 4 8 2-15-14 3z m1 10c-13-13-31-17-41-7-9 9-6 27 7 41 13 13 31 17 41 7 9-9 6-28-7-41z m-55 44l8 4 4 8 2-15-14 3z m0 11c-13-13-31-17-41-7-9 9-6 27 7 41 13 13 31 17 41 7 9-9 6-28-7-41z m-54 43l8 4 4 8 2-15-14 3z m1 10c-13-13-31-16-41-7-9 9-6 27 7 41 13 13 31 17 41 7 10-10 6-28-7-41z m-55 44l8 4 4 8 2-15-14 3z m1 10c-13-13-31-17-41-7-9 9-6 27 7 41 13 13 31 17 41 7 10-10 7-28-7-41z m-55 44l8 4 4 8 2-15-14 3z m0 11c-13-13-31-17-41-7-9 9-6 27 7 41 13 13 31 17 41 7 10-10 6-28-7-41z m-54 43l8 4 4 8 2-15-14 3z m0 11c-13-13-31-17-41-7-9 9-6 27 7 41 13 13 31 17 41 7 10-10 7-28-7-41z m-54 43l8 4 4 8 2-15-14 3z m1 10c-13-13-31-17-41-7-9 9-6 27 7 41 13 13 31 17 41 7s6-27-7-41z" horiz-adv-x="1000" />

<glyph glyph-name="intrauterine-device" unicode="&#xe801;" d="M786 552c-1 3-3 6-6 8-1 0-102 45-152 69-47 22-67 23-72 22-29 0-46-16-56-34-9 18-27 34-56 34-5 0-25 0-72-22-51-23-151-68-152-69-3-1-5-4-6-8 0-3 1-7 3-9 8-7 28-14 47 6 3 3 4 7 2 10 34 15 83 37 114 51 46 21 62 20 62 20 1 0 1 0 2 0 44 0 46-52 46-54v-29h-9c-6 0-10-4-10-10s4-10 10-10h9v0h-9c-6 0-10-4-10-10s4-10 10-10h9v0h-9c-6 0-10-4-10-10s4-10 10-10h9v0h-9c-6 0-10-4-10-10s4-10 10-10h9v0h-9c-6 0-10-4-10-10s4-10 10-10h9v0h-9c-6 0-10-4-10-10s4-10 10-10h9v0h-9c-6 0-10-4-10-10s4-10 10-10h9v0h-9c-6 0-10-4-10-10s4-10 10-10h9v0h-9c-6 0-10-4-10-10s4-10 10-10h9v0h-9c-6 0-10-4-10-10s4-10 10-10h9v0h-9c-6 0-10-4-10-10s4-10 10-10h9v0h-9c-6 0-10-4-10-10s4-10 10-10h9v0h-9c-6 0-10-4-10-10s4-10 10-10h9v0h-9c-6 0-10-4-10-10s4-10 10-10h9v0h-9c-6 0-10-4-10-10s4-10 10-10h9v0h-9c-6 0-10-4-10-10s4-10 10-10h9v0h-9c-6 0-10-4-10-10s4-10 10-10h9v0h-9c-6 0-10-4-10-10s4-10 10-10h9v0h-9c-6 0-10-4-10-10s4-10 10-10h9v0h-9c-6 0-10-4-10-10s4-10 10-10h9v-41c0-13-10-27-10-27-3-4-4-8-4-13 0-13 11-24 24-24s24 11 24 24c0 5-1 9-4 13l0 0c0 0-8 11-10 23v45h9c6 0 10 4 10 10s-4 10-10 10h-9v0h9c6 0 10 4 10 10s-4 10-10 10h-9v0h9c6 0 10 4 10 10s-4 10-10 10h-9v0h9c6 0 10 4 10 10s-4 10-10 10h-9v0h9c6 0 10 4 10 10s-4 10-10 10h-9v0h9c6 0 10 4 10 10s-4 10-10 10h-9v0h9c6 0 10 4 10 10s-4 10-10 10h-9v0h9c6 0 10 4 10 10s-4 10-10 10h-9v0h9c6 0 10 4 10 10s-4 10-10 10h-9v0h9c6 0 10 4 10 10s-4 10-10 10h-9v0h9c6 0 10 4 10 10s-4 10-10 10h-9v0h9c6 0 10 4 10 10s-4 10-10 10h-9v0h9c6 0 10 4 10 10s-4 10-10 10h-9v0h9c6 0 10 4 10 10s-4 10-10 10h-9v1h9c6 0 10 4 10 10s-4 10-10 10h-9v0h9c6 0 10 4 10 10s-4 10-10 10h-9v0h9c6 0 10 4 10 10s-4 10-10 10h-9v0h9c6 0 10 4 10 10s-4 10-10 10h-9v0h9c6 0 10 4 10 10s-4 10-10 10h-9v0h9c6 0 10 4 10 10s-4 10-10 10h-9v29c0 2 2 54 46 54 0 0 1 0 1 0 0 0 16 1 62-20 31-14 79-36 114-51-1-4 0-8 2-10 20-20 40-12 47-6 3 2 5 5 4 8z" horiz-adv-x="1000" />

<glyph glyph-name="condom" unicode="&#xe802;" d="M833 456l0 0-22 26 22 26h0l0 0h0l-22 26 22 26-22 26 22 26-22 26 22 26-667 0 22-26-22-26 22-26-22-26 22-26-22-26h0l0 0 0 0 22-26-22-26h0l0 0 22-26-22-26h0l0 0 22-26-22-26 0 0 0 0h0l22-26-22-26 22-26-22-26 22-26-22-26 22-26-22-26 22-26-22-26 22-26-22-26 396 0 0 0 271 0-22 26 22 26-22 26 22 26-22 26 22 26-22 26 22 26-22 26 22 26-22 26 22 26 0 0-22 26 22 26 0 0 0 0-22 26 22 26v0z m-62-367h-542v526h542v-526z m-271 33c-127 0-230 103-230 230 0 127 103 230 230 230 127 0 230-103 230-230 0-127-103-230-230-230z m0 399c-93 0-169-76-169-169 0-93 76-169 169-169 93 0 169 76 169 169 0 93-76 169-169 169z m99-199c-17 0-30 14-30 30 0 38-31 69-69 69-17 0-30 14-30 30 0 17 14 30 30 30 71 0 129-58 129-130 0-16-13-29-30-29z" horiz-adv-x="1000" />

<glyph glyph-name="family" unicode="&#xe803;" d="M313 803c-52 0-94-42-94-94 0-51 42-93 94-93 51 0 93 42 93 93 0 52-42 94-93 94z m343 0c-51 0-93-42-93-94 0-51 42-93 93-93 52 0 94 42 94 93 0 52-42 94-94 94z m-343-31c34 0 62-28 62-63 0-34-28-62-62-62-35 0-63 28-63 62 0 35 28 63 63 63z m343 0c35 0 63-28 63-63 0-34-28-62-63-62-34 0-62 28-62 62 0 35 28 63 62 63z m-393-172c-43 0-82-20-105-56-22-31-33-69-33-108l0-159c0-30 25-55 55-55 8 0 15 1 22 5l-13-265c0-17 6-34 17-46 13-13 28-19 46-19 29 0 53 19 61 45 7-26 31-45 60-45 18 0 35 8 46 20 11-12 25-20 42-20 16 0 30 6 39 17 9-11 23-17 39-17 14 0 25 5 34 12 10-7 21-12 33-12 13 0 25 5 35 14 9-9 22-14 34-14 23 0 44 17 47 42l23 208 41 0c8 0 17 3 23 11 5 6 8 15 8 25l-6 44c33 12 53 45 47 81l-24 172c-9 68-70 120-139 120l-65 0c-55 0-103-33-127-81-3 1-6 1-11 1-6 0-11 0-17-1l-8 15c-22 41-64 66-111 66z m0-31l93 0c35 0 67-19 83-50l8-13c-24-14-39-40-39-70 0-47 37-84 84-84 47 0 85 37 85 84 0 31-18 59-44 73 19 36 56 60 97 60l65 0c53 0 100-41 108-94l25-172c2-19-6-36-22-44l-29 219c-2 10-10 16-18 14-9-1-15-9-14-17l41-297-161 0 0 63c0 61-48 109-109 109l-32 0c-61 0-109-48-109-109l0-110c0-20 13-37 31-43l0-126c0-18-15-34-33-34-17 0-31 13-31 30l-14 264c0 9-8 16-15 16-8 0-16-7-16-16l-14-264c0-17-14-30-31-30-8 0-16 3-22 9-7 7-10 15-10 24l14 308 0 197c0 7-6 15-15 15-10 0-16-8-16-15l0-189c0-13-11-24-23-24-13 0-24 11-24 24l0 159c0 33 10 64 28 91 18 26 46 42 79 42z m229-77c0 0 2 0 2 0 11 0 22-3 29-9 16-11 25-28 25-47 0-31-25-56-56-56-31 0-56 25-56 56 0 17 8 34 22 44 8 8 19 11 30 12 1 0 3 0 4 0z m-476-126c-10 0-16-7-16-16l0-31c0-10 6-16 16-16 9 0 15 6 15 16l0 31c0 9-6 16-15 16z m78 0c-10 0-16-7-16-16l0-31c0-10 6-16 16-16 9 0 15 6 15 16l0 31c0 9-6 16-15 16z m781 0c-9 0-16-7-16-16l0-31c0-10 7-16 16-16 9 0 16 6 16 16l0 31c0 9-7 16-16 16z m78 0c-9 0-15-7-15-16l0-31c0-10 6-16 15-16 10 0 16 6 16 16l0 31c0 9-6 16-16 16z m-469-47l32 0c43 0 78-35 78-78l0-110c0-9-6-15-16-15-1 0-5 0-6-2-6-3-9-8-9-14l0-148c0-5-2-8-4-13-4-6-11-11-20-11-12 0-23 11-23 24l0 132c0 10-7 16-16 16-9 0-16-6-16-16l0-132c0-13-11-24-23-24-13 0-23 11-23 24l0 148c0 9-7 16-16 16-9 0-16 6-16 15l0 110c0 43 35 78 78 78z m172-172l58 0-23-205c0-8-8-14-16-14-9 0-19 9-19 19z m-31-16l0-184c0-10-9-19-19-19-6 0-12 3-14 9 2 5 2 10 2 15l0 136c19 6 31 23 31 43z" horiz-adv-x="1000" />
</font>
</defs>
</svg>